<svg width="32" height="32" viewBox="0 0 32 32" fill="none"
     xmlns="http://www.w3.org/2000/svg">
    <path
            d="M16 0C7.16344 0 0 7.16344 0 16C0 24.8366 7.16344 32 16 32C24.8366 32 32 24.8366 32 16C32 7.16344 24.8366 0 16 0ZM18.6546 17.3462C18.1074 20.9409 15.4273 23.0017 11.9575 23.0017C8.05832 23.0017 4.89707 19.8404 4.89707 15.9412C4.89707 12.043 8.05832 8.88175 11.9575 8.88175C13.8437 8.88175 15.4964 9.55485 16.6994 10.7233L14.6731 12.7495C13.9869 12.0582 13.0478 11.6897 11.9575 11.6897C9.66228 11.6897 7.80146 13.6469 7.80146 15.9412C7.80146 18.2375 9.66228 20.1379 11.9575 20.1379C13.8813 20.1379 15.3381 19.208 15.7583 17.3462H11.9575V14.5108H18.6374C18.7175 14.9677 18.7581 15.4458 18.7581 15.9412C18.7581 16.4325 18.7225 16.9005 18.6546 17.3462ZM27.1332 16.4671H24.6592V18.94H22.902V16.4671H20.428V14.7088H22.902V12.2348H24.6592V14.7088H27.1332V16.4671Z"
            fill="black"/>
</svg>
