<svg width="32" height="32" viewBox="0 0 32 32" fill="none"
     xmlns="http://www.w3.org/2000/svg">
    <circle cx="16" cy="16" r="16" fill="black"/>
    <path
            d="M18.8874 15.9999C18.8874 17.5921 17.5921 18.8874 15.9999 18.8874C14.4077 18.8874 13.1124 17.5921 13.1124 15.9999C13.1124 14.4077 14.4077 13.1124 15.9999 13.1124C17.5921 13.1124 18.8874 14.4077 18.8874 15.9999ZM15.9999 6.3999C10.7062 6.3999 6.3999 10.7062 6.3999 15.9999C6.3999 21.2936 10.7062 25.5999 15.9999 25.5999C17.9391 25.5999 19.809 25.0225 21.4074 23.9302L21.4349 23.911L20.1416 22.4079L20.1197 22.4216C18.8895 23.2136 17.4646 23.6319 15.9999 23.6319C11.7917 23.6319 8.3679 20.2081 8.3679 15.9999C8.3679 11.7917 11.7917 8.3679 15.9999 8.3679C20.2081 8.3679 23.6319 11.7917 23.6319 15.9999C23.6319 16.545 23.5709 17.097 23.4522 17.6401C23.2109 18.631 22.5169 18.9341 21.9965 18.8943C21.4726 18.8518 20.8596 18.4788 20.8554 17.5654V16.8694V15.9999C20.8554 13.3222 18.6776 11.1444 15.9999 11.1444C13.3222 11.1444 11.1444 13.3222 11.1444 15.9999C11.1444 18.6776 13.3222 20.8554 15.9999 20.8554C17.3007 20.8554 18.5206 20.3473 19.4401 19.4223C19.975 20.2548 20.8465 20.7766 21.8388 20.8561C21.9238 20.863 22.0109 20.8664 22.0966 20.8664C22.7953 20.8664 23.4872 20.6326 24.0454 20.2095C24.6207 19.772 25.0506 19.1405 25.2879 18.3814C25.3256 18.2586 25.3956 17.9782 25.3956 17.9761L25.3976 17.9658C25.5375 17.3569 25.5999 16.7501 25.5999 15.9999C25.5999 10.7062 21.2936 6.3999 15.9999 6.3999Z"
            fill="white"/>
</svg>
